mtllib Fishbone.mtl
o Fishbone
v -0.500000 0.500000 0.0
v -0.500000 -0.500000 0.0
v 0.500000 -0.500000 0.0
v 0.500000 0.500000 0.0
vt 0.0 1.0
vt 0.0 0.0
vt 1.0 0.0
vt 1.0 1.0

usemtl Fishbone_MATERIAL
f 1/1 2/2 3/3
f 3/3 4/4 1/1
